---- Inicio de los XML armados para emviar a Santander ---- 




-------- Fecha: 2019-07-11 19:53:29-------------





-------- Fecha: 2019-07-11 19:54:23-------------
<?xml version='1.0' encoding='UTF-8' standalone='yes'?>
							<P>
								<business>
									<id_company>ZC6A</id_company>
									<id_branch>0006</id_branch>
									<user>ZC6ASIUS0</user>
									<pwd>APSPVPSRG9</pwd>
								</business>
								<url>
									<reference>Hotel Adhara Cancun1369</reference>
									<amount>1362.56904</amount>
									<moneda>MXN</moneda>
									<canal>W</canal>
									<omitir_notif_default>1</omitir_notif_default>
									<st_correo>1</st_correo>
									<mail_cliente>juan.alucard.02@gmail.com</mail_cliente>
									<datos_adicionales>
										<data id='1' display='true'>
											<label>Nombre</label>
											<value>Juan Pablo gomez</value>
										</data>
									</datos_adicionales>
								</url>
							</P>




-------- Fecha: 2019-07-11 19:55:06-------------
<?xml version='1.0' encoding='UTF-8' standalone='yes'?>
							<P>
								<business>
									<id_company>ZC6A</id_company>
									<id_branch>0006</id_branch>
									<user>ZC6ASIUS0</user>
									<pwd>APSPVPSRG9</pwd>
								</business>
								<url>
									<reference>Hotel Adhara Cancun1370</reference>
									<amount>73.2564</amount>
									<moneda>USD</moneda>
									<canal>W</canal>
									<omitir_notif_default>1</omitir_notif_default>
									<st_correo>1</st_correo>
									<mail_cliente>juan.alucard.02@gmail.com</mail_cliente>
									<datos_adicionales>
										<data id='1' display='true'>
											<label>Nombre</label>
											<value>Juan Pablo gomez</value>
										</data>
									</datos_adicionales>
								</url>
							</P>




-------- Fecha: 2019-11-07 18:58:33-------------
<?xml version='1.0' encoding='UTF-8' standalone='yes'?>
							<P>
								<business>
									<id_company>ZC6A</id_company>
									<id_branch>0006</id_branch>
									<user>ZC6ASIUS0</user>
									<pwd>APSPVPSRG9</pwd>
								</business>
								<url>
									<reference>Hotel Adhara Cancun1375</reference>
									<amount>1359.47028</amount>
									<moneda>MXN</moneda>
									<canal>W</canal>
									<omitir_notif_default>1</omitir_notif_default>
									<st_correo>1</st_correo>
									<mail_cliente>juan.alucard.02@gmail.com</mail_cliente>
									<datos_adicionales>
										<data id='1' display='true'>
											<label>Nombre</label>
											<value>Juan Pablo Gomez Gomez</value>
										</data>
									</datos_adicionales>
								</url>
							</P>




-------- Fecha: 2019-11-12 16:07:37-------------
<?xml version='1.0' encoding='UTF-8' standalone='yes'?>
							<P>
								<business>
									<id_company>ZC6A</id_company>
									<id_branch>0006</id_branch>
									<user>ZC6ASIUS0</user>
									<pwd>APSPVPSRG9</pwd>
								</business>
								<url>
									<reference>Hotel Adhara Cancun1376</reference>
									<amount>1192.35858</amount>
									<moneda>MXN</moneda>
									<canal>W</canal>
									<omitir_notif_default>1</omitir_notif_default>
									<st_correo>1</st_correo>
									<mail_cliente>juan.alucard.02@gmail.com</mail_cliente>
									<datos_adicionales>
										<data id='1' display='true'>
											<label>Nombre</label>
											<value>Juan Pablo Gomez Gomez</value>
										</data>
									</datos_adicionales>
								</url>
							</P>




-------- Fecha: 2019-11-12 16:18:29-------------
<?xml version='1.0' encoding='UTF-8' standalone='yes'?>
							<P>
								<business>
									<id_company>ZC6A</id_company>
									<id_branch>0006</id_branch>
									<user>ZC6ASIUS0</user>
									<pwd>APSPVPSRG9</pwd>
								</business>
								<url>
									<reference>Hotel Adhara Cancun1377</reference>
									<amount>1192.35858</amount>
									<moneda>MXN</moneda>
									<canal>W</canal>
									<omitir_notif_default>1</omitir_notif_default>
									<st_correo>1</st_correo>
									<mail_cliente>juan.alucard.02@gmail.com</mail_cliente>
									<datos_adicionales>
										<data id='1' display='true'>
											<label>Nombre</label>
											<value>Juan Pablo Gomez Gomez</value>
										</data>
									</datos_adicionales>
								</url>
							</P>




-------- Fecha: 2019-11-12 16:19:43-------------
<?xml version='1.0' encoding='UTF-8' standalone='yes'?>
							<P>
								<business>
									<id_company>ZC6A</id_company>
									<id_branch>0006</id_branch>
									<user>ZC6ASIUS0</user>
									<pwd>APSPVPSRG9</pwd>
								</business>
								<url>
									<reference>Hotel Adhara Cancun1378</reference>
									<amount>1192.35858</amount>
									<moneda>MXN</moneda>
									<canal>W</canal>
									<omitir_notif_default>1</omitir_notif_default>
									<st_correo>1</st_correo>
									<mail_cliente>juan.alucard.02@gmail.com</mail_cliente>
									<datos_adicionales>
										<data id='1' display='true'>
											<label>Nombre</label>
											<value>Juan Pablo Gomez Gomez</value>
										</data>
									</datos_adicionales>
								</url>
							</P>




-------- Fecha: 2019-11-12 16:29:46-------------
<?xml version='1.0' encoding='UTF-8' standalone='yes'?>
							<P>
								<business>
									<id_company>ZC6A</id_company>
									<id_branch>0006</id_branch>
									<user>ZC6ASIUS0</user>
									<pwd>APSPVPSRG9</pwd>
								</business>
								<url>
									<reference>Hotel Adhara Cancun1379</reference>
									<amount>1192.35858</amount>
									<moneda>MXN</moneda>
									<canal>W</canal>
									<omitir_notif_default>1</omitir_notif_default>
									<st_correo>1</st_correo>
									<mail_cliente>juan.alucard.02@gmail.com</mail_cliente>
									<datos_adicionales>
										<data id='1' display='true'>
											<label>Nombre</label>
											<value>Juan Pablo Gomez Gomez</value>
										</data>
									</datos_adicionales>
								</url>
							</P>




-------- Fecha: 2019-11-12 16:34:10-------------
<?xml version='1.0' encoding='UTF-8' standalone='yes'?>
							<P>
								<business>
									<id_company>ZC6A</id_company>
									<id_branch>0006</id_branch>
									<user>ZC6ASIUS0</user>
									<pwd>APSPVPSRG9</pwd>
								</business>
								<url>
									<reference>Hotel Adhara Cancun1380</reference>
									<amount>1192.35858</amount>
									<moneda>MXN</moneda>
									<canal>W</canal>
									<omitir_notif_default>1</omitir_notif_default>
									<st_correo>1</st_correo>
									<mail_cliente>juan.alucard.02@gmail.com</mail_cliente>
									<datos_adicionales>
										<data id='1' display='true'>
											<label>Nombre</label>
											<value>Juan Pablo Gomez Gomez</value>
										</data>
									</datos_adicionales>
								</url>
							</P>




-------- Fecha: 2019-11-12 16:35:41-------------
<?xml version='1.0' encoding='UTF-8' standalone='yes'?>
							<P>
								<business>
									<id_company>ZC6A</id_company>
									<id_branch>0006</id_branch>
									<user>ZC6ASIUS0</user>
									<pwd>APSPVPSRG9</pwd>
								</business>
								<url>
									<reference>Hotel Adhara Cancun1381</reference>
									<amount>1192.35858</amount>
									<moneda>MXN</moneda>
									<canal>W</canal>
									<omitir_notif_default>1</omitir_notif_default>
									<st_correo>1</st_correo>
									<mail_cliente>juan.alucard.02@gmail.com</mail_cliente>
									<datos_adicionales>
										<data id='1' display='true'>
											<label>Nombre</label>
											<value>Juan Pablo Gomez Gomez</value>
										</data>
									</datos_adicionales>
								</url>
							</P>




-------- Fecha: 2019-11-12 16:37:06-------------
<?xml version='1.0' encoding='UTF-8' standalone='yes'?>
							<P>
								<business>
									<id_company>ZC6A</id_company>
									<id_branch>0006</id_branch>
									<user>ZC6ASIUS0</user>
									<pwd>APSPVPSRG9</pwd>
								</business>
								<url>
									<reference>Hotel Adhara Cancun1382</reference>
									<amount>1192.35858</amount>
									<moneda>MXN</moneda>
									<canal>W</canal>
									<omitir_notif_default>1</omitir_notif_default>
									<st_correo>1</st_correo>
									<mail_cliente>juan.alucard.02@gmail.com</mail_cliente>
									<datos_adicionales>
										<data id='1' display='true'>
											<label>Nombre</label>
											<value>Juan Pablo Gomez Gomez</value>
										</data>
									</datos_adicionales>
								</url>
							</P>




-------- Fecha: 2019-11-12 16:38:37-------------
<?xml version='1.0' encoding='UTF-8' standalone='yes'?>
							<P>
								<business>
									<id_company>ZC6A</id_company>
									<id_branch>0006</id_branch>
									<user>ZC6ASIUS0</user>
									<pwd>APSPVPSRG9</pwd>
								</business>
								<url>
									<reference>Hotel Adhara Cancun1383</reference>
									<amount>1192.35858</amount>
									<moneda>MXN</moneda>
									<canal>W</canal>
									<omitir_notif_default>1</omitir_notif_default>
									<st_correo>1</st_correo>
									<mail_cliente>juan.alucard.02@gmail.com</mail_cliente>
									<datos_adicionales>
										<data id='1' display='true'>
											<label>Nombre</label>
											<value>Juan Pablo Gomez Gomez</value>
										</data>
									</datos_adicionales>
								</url>
							</P>




-------- Fecha: 2019-11-12 16:50:08-------------
<?xml version='1.0' encoding='UTF-8' standalone='yes'?>
							<P>
								<business>
									<id_company>ZC6A</id_company>
									<id_branch>0006</id_branch>
									<user>ZC6ASIUS0</user>
									<pwd>APSPVPSRG9</pwd>
								</business>
								<url>
									<reference>Hotel Adhara Cancun1384</reference>
									<amount>1192.35858</amount>
									<moneda>MXN</moneda>
									<canal>W</canal>
									<omitir_notif_default>1</omitir_notif_default>
									<st_correo>1</st_correo>
									<mail_cliente>juan.alucard.02@gmail.com</mail_cliente>
									<datos_adicionales>
										<data id='1' display='true'>
											<label>Nombre</label>
											<value>Juan Pablo Gomez Gomez</value>
										</data>
									</datos_adicionales>
								</url>
							</P>




-------- Fecha: 2019-11-12 16:51:20-------------
<?xml version='1.0' encoding='UTF-8' standalone='yes'?>
							<P>
								<business>
									<id_company>ZC6A</id_company>
									<id_branch>0006</id_branch>
									<user>ZC6ASIUS0</user>
									<pwd>APSPVPSRG9</pwd>
								</business>
								<url>
									<reference>Hotel Adhara Cancun1385</reference>
									<amount>953.886864</amount>
									<moneda>MXN</moneda>
									<canal>W</canal>
									<omitir_notif_default>1</omitir_notif_default>
									<st_correo>1</st_correo>
									<mail_cliente>juan.alucard.02@gmail.com</mail_cliente>
									<datos_adicionales>
										<data id='1' display='true'>
											<label>Nombre</label>
											<value>Juan Pablo Gomez Gomez</value>
										</data>
									</datos_adicionales>
								</url>
							</P>




-------- Fecha: 2019-11-12 16:53:05-------------
<?xml version='1.0' encoding='UTF-8' standalone='yes'?>
							<P>
								<business>
									<id_company>ZC6A</id_company>
									<id_branch>0006</id_branch>
									<user>ZC6ASIUS0</user>
									<pwd>APSPVPSRG9</pwd>
								</business>
								<url>
									<reference>Hotel Adhara Cancun1386</reference>
									<amount>953.886864</amount>
									<moneda>MXN</moneda>
									<canal>W</canal>
									<omitir_notif_default>1</omitir_notif_default>
									<st_correo>1</st_correo>
									<mail_cliente>juan.alucard.02@gmail.com</mail_cliente>
									<datos_adicionales>
										<data id='1' display='true'>
											<label>Nombre</label>
											<value>Juan Pablo Gomez Gomez</value>
										</data>
									</datos_adicionales>
								</url>
							</P>




-------- Fecha: 2019-11-12 16:55:39-------------
<?xml version='1.0' encoding='UTF-8' standalone='yes'?>
							<P>
								<business>
									<id_company>ZC6A</id_company>
									<id_branch>0006</id_branch>
									<user>ZC6ASIUS0</user>
									<pwd>APSPVPSRG9</pwd>
								</business>
								<url>
									<reference>Hotel Adhara Cancun1387</reference>
									<amount>954</amount>
									<moneda>MXN</moneda>
									<canal>W</canal>
									<omitir_notif_default>1</omitir_notif_default>
									<st_correo>1</st_correo>
									<mail_cliente>juan.alucard.02@gmail.com</mail_cliente>
									<datos_adicionales>
										<data id='1' display='true'>
											<label>Nombre</label>
											<value>Juan Pablo Gomez Gomez</value>
										</data>
									</datos_adicionales>
								</url>
							</P>




-------- Fecha: 2019-11-12 17:57:27-------------
<?xml version='1.0' encoding='UTF-8' standalone='yes'?>
							<P>
								<business>
									<id_company>ZC6A</id_company>
									<id_branch>0006</id_branch>
									<user>ZC6ASIUS0</user>
									<pwd>APSPVPSRG9</pwd>
								</business>
								<url>
									<reference>Hotel Adhara Cancun1391</reference>
									<amount>954</amount>
									<moneda>MXN</moneda>
									<canal>W</canal>
									<omitir_notif_default>1</omitir_notif_default>
									<st_correo>1</st_correo>
									<mail_cliente>juan.alucard.02@gmail.com</mail_cliente>
									<datos_adicionales>
										<data id='1' display='true'>
											<label>Nombre</label>
											<value>Juan Pablo Gomez Gomez</value>
										</data>
									</datos_adicionales>
								</url>
							</P>




-------- Fecha: 2019-11-12 18:12:00-------------
<?xml version='1.0' encoding='UTF-8' standalone='yes'?>
							<P>
								<business>
									<id_company>ZC6A</id_company>
									<id_branch>0006</id_branch>
									<user>ZC6ASIUS0</user>
									<pwd>APSPVPSRG9</pwd>
								</business>
								<url>
									<reference>Hotel Adhara Cancun1392</reference>
									<amount>954</amount>
									<moneda>MXN</moneda>
									<canal>W</canal>
									<omitir_notif_default>1</omitir_notif_default>
									<st_correo>1</st_correo>
									<mail_cliente>juan.alucard.02@gmail.com</mail_cliente>
									<datos_adicionales>
										<data id='1' display='true'>
											<label>Nombre</label>
											<value>Juan Pablo Gomez Gomez</value>
										</data>
									</datos_adicionales>
								</url>
							</P>




-------- Fecha: 2019-11-12 18:16:49-------------
<?xml version='1.0' encoding='UTF-8' standalone='yes'?>
							<P>
								<business>
									<id_company>ZC6A</id_company>
									<id_branch>0006</id_branch>
									<user>ZC6ASIUS0</user>
									<pwd>APSPVPSRG9</pwd>
								</business>
								<url>
									<reference>Hotel Adhara Cancun1393</reference>
									<amount>954</amount>
									<moneda>MXN</moneda>
									<canal>W</canal>
									<omitir_notif_default>1</omitir_notif_default>
									<st_correo>1</st_correo>
									<mail_cliente>juan.alucard.02@gmail.com</mail_cliente>
									<datos_adicionales>
										<data id='1' display='true'>
											<label>Nombre</label>
											<value>Juan Pablo Gomez Gomez</value>
										</data>
									</datos_adicionales>
								</url>
							</P>




-------- Fecha: 2019-11-12 18:17:52-------------
<?xml version='1.0' encoding='UTF-8' standalone='yes'?>
							<P>
								<business>
									<id_company>ZC6A</id_company>
									<id_branch>0006</id_branch>
									<user>ZC6ASIUS0</user>
									<pwd>APSPVPSRG9</pwd>
								</business>
								<url>
									<reference>Hotel Adhara Cancun1394</reference>
									<amount>858</amount>
									<moneda>MXN</moneda>
									<canal>W</canal>
									<omitir_notif_default>1</omitir_notif_default>
									<st_correo>1</st_correo>
									<mail_cliente>juan.alucard.02@gmail.com</mail_cliente>
									<datos_adicionales>
										<data id='1' display='true'>
											<label>Nombre</label>
											<value>Juan Pablo gomez</value>
										</data>
									</datos_adicionales>
								</url>
							</P>




-------- Fecha: 2019-11-12 18:19:27-------------
<?xml version='1.0' encoding='UTF-8' standalone='yes'?>
							<P>
								<business>
									<id_company>ZC6A</id_company>
									<id_branch>0006</id_branch>
									<user>ZC6ASIUS0</user>
									<pwd>APSPVPSRG9</pwd>
								</business>
								<url>
									<reference>Hotel Adhara Cancun1395</reference>
									<amount>858</amount>
									<moneda>MXN</moneda>
									<canal>W</canal>
									<omitir_notif_default>1</omitir_notif_default>
									<st_correo>1</st_correo>
									<mail_cliente>juan.alucard.02@gmail.com</mail_cliente>
									<datos_adicionales>
										<data id='1' display='true'>
											<label>Nombre</label>
											<value>Juan Pablo gomez</value>
										</data>
									</datos_adicionales>
								</url>
							</P>




-------- Fecha: 2019-11-12 18:20:22-------------
<?xml version='1.0' encoding='UTF-8' standalone='yes'?>
							<P>
								<business>
									<id_company>ZC6A</id_company>
									<id_branch>0006</id_branch>
									<user>ZC6ASIUS0</user>
									<pwd>APSPVPSRG9</pwd>
								</business>
								<url>
									<reference>Hotel Adhara Cancun1396</reference>
									<amount>858</amount>
									<moneda>MXN</moneda>
									<canal>W</canal>
									<omitir_notif_default>1</omitir_notif_default>
									<st_correo>1</st_correo>
									<mail_cliente>juan.alucard.02@gmail.com</mail_cliente>
									<datos_adicionales>
										<data id='1' display='true'>
											<label>Nombre</label>
											<value>Juan Pablo gomez</value>
										</data>
									</datos_adicionales>
								</url>
							</P>




-------- Fecha: 2019-11-12 18:22:13-------------
<?xml version='1.0' encoding='UTF-8' standalone='yes'?>
							<P>
								<business>
									<id_company>ZC6A</id_company>
									<id_branch>0006</id_branch>
									<user>ZC6ASIUS0</user>
									<pwd>APSPVPSRG9</pwd>
								</business>
								<url>
									<reference>Hotel Adhara Cancun1397</reference>
									<amount>858</amount>
									<moneda>MXN</moneda>
									<canal>W</canal>
									<omitir_notif_default>1</omitir_notif_default>
									<st_correo>1</st_correo>
									<mail_cliente>juan.alucard.02@gmail.com</mail_cliente>
									<datos_adicionales>
										<data id='1' display='true'>
											<label>Nombre</label>
											<value>Juan Pablo gomez</value>
										</data>
									</datos_adicionales>
								</url>
							</P>




-------- Fecha: 2019-11-12 18:25:29-------------
<?xml version='1.0' encoding='UTF-8' standalone='yes'?>
							<P>
								<business>
									<id_company>ZC6A</id_company>
									<id_branch>0006</id_branch>
									<user>ZC6ASIUS0</user>
									<pwd>APSPVPSRG9</pwd>
								</business>
								<url>
									<reference>Hotel Adhara Cancun1398</reference>
									<amount>858</amount>
									<moneda>MXN</moneda>
									<canal>W</canal>
									<omitir_notif_default>1</omitir_notif_default>
									<st_correo>1</st_correo>
									<mail_cliente>juan.alucard.02@gmail.com</mail_cliente>
									<datos_adicionales>
										<data id='1' display='true'>
											<label>Nombre</label>
											<value>Juan Pablo gomez</value>
										</data>
									</datos_adicionales>
								</url>
							</P>




-------- Fecha: 2019-11-12 18:26:19-------------
<?xml version='1.0' encoding='UTF-8' standalone='yes'?>
							<P>
								<business>
									<id_company>ZC6A</id_company>
									<id_branch>0006</id_branch>
									<user>ZC6ASIUS0</user>
									<pwd>APSPVPSRG9</pwd>
								</business>
								<url>
									<reference>Hotel Adhara Cancun1399</reference>
									<amount>858</amount>
									<moneda>MXN</moneda>
									<canal>W</canal>
									<omitir_notif_default>1</omitir_notif_default>
									<st_correo>1</st_correo>
									<mail_cliente>juan.alucard.02@gmail.com</mail_cliente>
									<datos_adicionales>
										<data id='1' display='true'>
											<label>Nombre</label>
											<value>Juan Pablo gomez</value>
										</data>
									</datos_adicionales>
								</url>
							</P>




-------- Fecha: 2019-11-12 18:29:24-------------
<?xml version='1.0' encoding='UTF-8' standalone='yes'?>
							<P>
								<business>
									<id_company>ZC6A</id_company>
									<id_branch>0006</id_branch>
									<user>ZC6ASIUS0</user>
									<pwd>APSPVPSRG9</pwd>
								</business>
								<url>
									<reference>Hotel Adhara Cancun1400</reference>
									<amount>858</amount>
									<moneda>MXN</moneda>
									<canal>W</canal>
									<omitir_notif_default>1</omitir_notif_default>
									<st_correo>1</st_correo>
									<mail_cliente>juan.alucard.02@gmail.com</mail_cliente>
									<datos_adicionales>
										<data id='1' display='true'>
											<label>Nombre</label>
											<value>Juan Pablo gomez</value>
										</data>
									</datos_adicionales>
								</url>
							</P>




-------- Fecha: 2019-11-12 18:30:02-------------
<?xml version='1.0' encoding='UTF-8' standalone='yes'?>
							<P>
								<business>
									<id_company>ZC6A</id_company>
									<id_branch>0006</id_branch>
									<user>ZC6ASIUS0</user>
									<pwd>APSPVPSRG9</pwd>
								</business>
								<url>
									<reference>Hotel Adhara Cancun1401</reference>
									<amount>858</amount>
									<moneda>MXN</moneda>
									<canal>W</canal>
									<omitir_notif_default>1</omitir_notif_default>
									<st_correo>1</st_correo>
									<mail_cliente>juan.alucard.02@gmail.com</mail_cliente>
									<datos_adicionales>
										<data id='1' display='true'>
											<label>Nombre</label>
											<value>Juan Pablo gomez</value>
										</data>
									</datos_adicionales>
								</url>
							</P>




-------- Fecha: 2019-11-12 18:31:21-------------
<?xml version='1.0' encoding='UTF-8' standalone='yes'?>
							<P>
								<business>
									<id_company>ZC6A</id_company>
									<id_branch>0006</id_branch>
									<user>ZC6ASIUS0</user>
									<pwd>APSPVPSRG9</pwd>
								</business>
								<url>
									<reference>Hotel Adhara Cancun1402</reference>
									<amount>858</amount>
									<moneda>MXN</moneda>
									<canal>W</canal>
									<omitir_notif_default>1</omitir_notif_default>
									<st_correo>1</st_correo>
									<mail_cliente>juan.alucard.02@gmail.com</mail_cliente>
									<datos_adicionales>
										<data id='1' display='true'>
											<label>Nombre</label>
											<value>Juan Pablo gomez</value>
										</data>
									</datos_adicionales>
								</url>
							</P>




-------- Fecha: 2019-11-12 18:32:53-------------
<?xml version='1.0' encoding='UTF-8' standalone='yes'?>
							<P>
								<business>
									<id_company>ZC6A</id_company>
									<id_branch>0006</id_branch>
									<user>ZC6ASIUS0</user>
									<pwd>APSPVPSRG9</pwd>
								</business>
								<url>
									<reference>Hotel Adhara Cancun1403</reference>
									<amount>858</amount>
									<moneda>MXN</moneda>
									<canal>W</canal>
									<omitir_notif_default>1</omitir_notif_default>
									<st_correo>1</st_correo>
									<mail_cliente>juan.alucard.02@gmail.com</mail_cliente>
									<datos_adicionales>
										<data id='1' display='true'>
											<label>Nombre</label>
											<value>Juan Pablo gomez</value>
										</data>
									</datos_adicionales>
								</url>
							</P>




-------- Fecha: 2019-11-12 18:35:22-------------
<?xml version='1.0' encoding='UTF-8' standalone='yes'?>
							<P>
								<business>
									<id_company>ZC6A</id_company>
									<id_branch>0006</id_branch>
									<user>ZC6ASIUS0</user>
									<pwd>APSPVPSRG9</pwd>
								</business>
								<url>
									<reference>Hotel Adhara Cancun1404</reference>
									<amount>858</amount>
									<moneda>MXN</moneda>
									<canal>W</canal>
									<omitir_notif_default>1</omitir_notif_default>
									<st_correo>1</st_correo>
									<mail_cliente>juan.alucard.02@gmail.com</mail_cliente>
									<datos_adicionales>
										<data id='1' display='true'>
											<label>Nombre</label>
											<value>Juan Pablo gomez</value>
										</data>
									</datos_adicionales>
								</url>
							</P>




-------- Fecha: 2019-11-12 18:39:50-------------
<?xml version='1.0' encoding='UTF-8' standalone='yes'?>
							<P>
								<business>
									<id_company>ZC6A</id_company>
									<id_branch>0006</id_branch>
									<user>ZC6ASIUS0</user>
									<pwd>APSPVPSRG9</pwd>
								</business>
								<url>
									<reference>Hotel Adhara Cancun1405</reference>
									<amount>858</amount>
									<moneda>MXN</moneda>
									<canal>W</canal>
									<omitir_notif_default>1</omitir_notif_default>
									<st_correo>1</st_correo>
									<mail_cliente>juan.alucard.02@gmail.com</mail_cliente>
									<datos_adicionales>
										<data id='1' display='true'>
											<label>Nombre</label>
											<value>Juan Pablo gomez</value>
										</data>
									</datos_adicionales>
								</url>
							</P>




-------- Fecha: 2019-11-12 18:44:40-------------
<?xml version='1.0' encoding='UTF-8' standalone='yes'?>
							<P>
								<business>
									<id_company>ZC6A</id_company>
									<id_branch>0006</id_branch>
									<user>ZC6ASIUS0</user>
									<pwd>APSPVPSRG9</pwd>
								</business>
								<url>
									<reference>Hotel Adhara Cancun1406</reference>
									<amount>858</amount>
									<moneda>MXN</moneda>
									<canal>W</canal>
									<omitir_notif_default>1</omitir_notif_default>
									<st_correo>1</st_correo>
									<mail_cliente>juan.alucard.02@gmail.com</mail_cliente>
									<datos_adicionales>
										<data id='1' display='true'>
											<label>Nombre</label>
											<value>Juan Pablo gomez</value>
										</data>
									</datos_adicionales>
								</url>
							</P>




-------- Fecha: 2019-11-12 18:46:17-------------
<?xml version='1.0' encoding='UTF-8' standalone='yes'?>
							<P>
								<business>
									<id_company>ZC6A</id_company>
									<id_branch>0006</id_branch>
									<user>ZC6ASIUS0</user>
									<pwd>APSPVPSRG9</pwd>
								</business>
								<url>
									<reference>Hotel Adhara Cancun1407</reference>
									<amount>858</amount>
									<moneda>MXN</moneda>
									<canal>W</canal>
									<omitir_notif_default>1</omitir_notif_default>
									<st_correo>1</st_correo>
									<mail_cliente>juan.alucard.02@gmail.com</mail_cliente>
									<datos_adicionales>
										<data id='1' display='true'>
											<label>Nombre</label>
											<value>Juan Pablo gomez</value>
										</data>
									</datos_adicionales>
								</url>
							</P>




-------- Fecha: 2019-11-12 18:51:52-------------
<?xml version='1.0' encoding='UTF-8' standalone='yes'?>
							<P>
								<business>
									<id_company>ZC6A</id_company>
									<id_branch>0006</id_branch>
									<user>ZC6ASIUS0</user>
									<pwd>APSPVPSRG9</pwd>
								</business>
								<url>
									<reference>Hotel Adhara Cancun1408</reference>
									<amount>858</amount>
									<moneda>MXN</moneda>
									<canal>W</canal>
									<omitir_notif_default>1</omitir_notif_default>
									<st_correo>1</st_correo>
									<mail_cliente>juan.alucard.02@gmail.com</mail_cliente>
									<datos_adicionales>
										<data id='1' display='true'>
											<label>Nombre</label>
											<value>Juan Pablo gomez</value>
										</data>
									</datos_adicionales>
								</url>
							</P>




-------- Fecha: 2019-11-12 18:54:48-------------
<?xml version='1.0' encoding='UTF-8' standalone='yes'?>
							<P>
								<business>
									<id_company>ZC6A</id_company>
									<id_branch>0006</id_branch>
									<user>ZC6ASIUS0</user>
									<pwd>APSPVPSRG9</pwd>
								</business>
								<url>
									<reference>Hotel Adhara Cancun1409</reference>
									<amount>858</amount>
									<moneda>MXN</moneda>
									<canal>W</canal>
									<omitir_notif_default>1</omitir_notif_default>
									<st_correo>1</st_correo>
									<mail_cliente>juan.alucard.02@gmail.com</mail_cliente>
									<datos_adicionales>
										<data id='1' display='true'>
											<label>Nombre</label>
											<value>Juan Pablo gomez</value>
										</data>
									</datos_adicionales>
								</url>
							</P>




-------- Fecha: 2019-11-12 18:55:47-------------
<?xml version='1.0' encoding='UTF-8' standalone='yes'?>
							<P>
								<business>
									<id_company>ZC6A</id_company>
									<id_branch>0006</id_branch>
									<user>ZC6ASIUS0</user>
									<pwd>APSPVPSRG9</pwd>
								</business>
								<url>
									<reference>Hotel Adhara Cancun1410</reference>
									<amount>858</amount>
									<moneda>MXN</moneda>
									<canal>W</canal>
									<omitir_notif_default>1</omitir_notif_default>
									<st_correo>1</st_correo>
									<mail_cliente>juan.alucard.02@gmail.com</mail_cliente>
									<datos_adicionales>
										<data id='1' display='true'>
											<label>Nombre</label>
											<value>Juan Pablo gomez</value>
										</data>
									</datos_adicionales>
								</url>
							</P>




-------- Fecha: 2019-11-12 18:59:03-------------
<?xml version='1.0' encoding='UTF-8' standalone='yes'?>
							<P>
								<business>
									<id_company>ZC6A</id_company>
									<id_branch>0006</id_branch>
									<user>ZC6ASIUS0</user>
									<pwd>APSPVPSRG9</pwd>
								</business>
								<url>
									<reference>Hotel Adhara Cancun1411</reference>
									<amount>858</amount>
									<moneda>MXN</moneda>
									<canal>W</canal>
									<omitir_notif_default>1</omitir_notif_default>
									<st_correo>1</st_correo>
									<mail_cliente>juan.alucard.02@gmail.com</mail_cliente>
									<datos_adicionales>
										<data id='1' display='true'>
											<label>Nombre</label>
											<value>Juan Pablo gomez</value>
										</data>
									</datos_adicionales>
								</url>
							</P>




-------- Fecha: 2019-11-12 19:03:05-------------
<?xml version='1.0' encoding='UTF-8' standalone='yes'?>
							<P>
								<business>
									<id_company>ZC6A</id_company>
									<id_branch>0006</id_branch>
									<user>ZC6ASIUS0</user>
									<pwd>APSPVPSRG9</pwd>
								</business>
								<url>
									<reference>Hotel Adhara Cancun1412</reference>
									<amount>858</amount>
									<moneda>MXN</moneda>
									<canal>W</canal>
									<omitir_notif_default>1</omitir_notif_default>
									<st_correo>1</st_correo>
									<mail_cliente>juan.alucard.02@gmail.com</mail_cliente>
									<datos_adicionales>
										<data id='1' display='true'>
											<label>Nombre</label>
											<value>Juan Pablo gomez</value>
										</data>
									</datos_adicionales>
								</url>
							</P>




-------- Fecha: 2019-11-12 19:03:22-------------
<?xml version='1.0' encoding='UTF-8' standalone='yes'?>
							<P>
								<business>
									<id_company>ZC6A</id_company>
									<id_branch>0006</id_branch>
									<user>ZC6ASIUS0</user>
									<pwd>APSPVPSRG9</pwd>
								</business>
								<url>
									<reference>Hotel Adhara Cancun1413</reference>
									<amount>858</amount>
									<moneda>MXN</moneda>
									<canal>W</canal>
									<omitir_notif_default>1</omitir_notif_default>
									<st_correo>1</st_correo>
									<mail_cliente>juan.alucard.02@gmail.com</mail_cliente>
									<datos_adicionales>
										<data id='1' display='true'>
											<label>Nombre</label>
											<value>Juan Pablo gomez</value>
										</data>
									</datos_adicionales>
								</url>
							</P>




-------- Fecha: 2019-11-12 19:05:34-------------
<?xml version='1.0' encoding='UTF-8' standalone='yes'?>
							<P>
								<business>
									<id_company>ZC6A</id_company>
									<id_branch>0006</id_branch>
									<user>ZC6ASIUS0</user>
									<pwd>APSPVPSRG9</pwd>
								</business>
								<url>
									<reference>Hotel Adhara Cancun1414</reference>
									<amount>858</amount>
									<moneda>MXN</moneda>
									<canal>W</canal>
									<omitir_notif_default>1</omitir_notif_default>
									<st_correo>1</st_correo>
									<mail_cliente>juan.alucard.02@gmail.com</mail_cliente>
									<datos_adicionales>
										<data id='1' display='true'>
											<label>Nombre</label>
											<value>Juan Pablo gomez</value>
										</data>
									</datos_adicionales>
								</url>
							</P>




-------- Fecha: 2019-11-12 19:15:55-------------
<?xml version='1.0' encoding='UTF-8' standalone='yes'?>
							<P>
								<business>
									<id_company>ZC6A</id_company>
									<id_branch>0006</id_branch>
									<user>ZC6ASIUS0</user>
									<pwd>APSPVPSRG9</pwd>
								</business>
								<url>
									<reference>Hotel Adhara Cancun1415</reference>
									<amount>858</amount>
									<moneda>MXN</moneda>
									<canal>W</canal>
									<omitir_notif_default>1</omitir_notif_default>
									<st_correo>1</st_correo>
									<mail_cliente>juan.alucard.02@gmail.com</mail_cliente>
									<datos_adicionales>
										<data id='1' display='true'>
											<label>Nombre</label>
											<value>Juan Pablo gomez</value>
										</data>
									</datos_adicionales>
								</url>
							</P>




-------- Fecha: 2019-11-12 19:33:53-------------
<?xml version='1.0' encoding='UTF-8' standalone='yes'?>
							<P>
								<business>
									<id_company>ZC6A</id_company>
									<id_branch>0006</id_branch>
									<user>ZC6ASIUS0</user>
									<pwd>APSPVPSRG9</pwd>
								</business>
								<url>
									<reference>Hotel Adhara Cancun1416</reference>
									<amount>858</amount>
									<moneda>MXN</moneda>
									<canal>W</canal>
									<omitir_notif_default>1</omitir_notif_default>
									<st_correo>1</st_correo>
									<mail_cliente>juan.alucard.02@gmail.com</mail_cliente>
									<datos_adicionales>
										<data id='1' display='true'>
											<label>Nombre</label>
											<value>Juan Pablo gomez</value>
										</data>
									</datos_adicionales>
								</url>
							</P>




-------- Fecha: 2019-11-13 18:16:21-------------
<?xml version='1.0' encoding='UTF-8' standalone='yes'?>
							<P>
								<business>
									<id_company>ZC6A</id_company>
									<id_branch>0006</id_branch>
									<user>ZC6ASIUS0</user>
									<pwd>APSPVPSRG9</pwd>
								</business>
								<url>
									<reference>Hotel Adhara Cancun1417</reference>
									<amount>954</amount>
									<moneda>MXN</moneda>
									<canal>W</canal>
									<omitir_notif_default>1</omitir_notif_default>
									<st_correo>1</st_correo>
									<mail_cliente>juan.alucard.02@gmail.com</mail_cliente>
									<datos_adicionales>
										<data id='1' display='true'>
											<label>Nombre</label>
											<value>Juan Pablo Gomez Gomez</value>
										</data>
									</datos_adicionales>
								</url>
							</P>




-------- Fecha: 2019-11-13 18:33:58-------------
<?xml version='1.0' encoding='UTF-8' standalone='yes'?>
							<P>
								<business>
									<id_company>ZC6A</id_company>
									<id_branch>0006</id_branch>
									<user>ZC6ASIUS0</user>
									<pwd>APSPVPSRG9</pwd>
								</business>
								<url>
									<reference>Hotel Adhara Cancun1418</reference>
									<amount>954</amount>
									<moneda>MXN</moneda>
									<canal>W</canal>
									<omitir_notif_default>1</omitir_notif_default>
									<st_correo>1</st_correo>
									<mail_cliente>juan.alucard.02@gmail.com</mail_cliente>
									<datos_adicionales>
										<data id='1' display='true'>
											<label>Nombre</label>
											<value>Juan Pablo Gomez Gomez</value>
										</data>
									</datos_adicionales>
								</url>
							</P>




-------- Fecha: 2019-11-13 18:34:28-------------
<?xml version='1.0' encoding='UTF-8' standalone='yes'?>
							<P>
								<business>
									<id_company>ZC6A</id_company>
									<id_branch>0006</id_branch>
									<user>ZC6ASIUS0</user>
									<pwd>APSPVPSRG9</pwd>
								</business>
								<url>
									<reference>Hotel Adhara Cancun1419</reference>
									<amount>954</amount>
									<moneda>MXN</moneda>
									<canal>W</canal>
									<omitir_notif_default>1</omitir_notif_default>
									<st_correo>1</st_correo>
									<mail_cliente>juan.alucard.02@gmail.com</mail_cliente>
									<datos_adicionales>
										<data id='1' display='true'>
											<label>Nombre</label>
											<value>Juan Pablo Gomez Gomez</value>
										</data>
									</datos_adicionales>
								</url>
							</P>




-------- Fecha: 2019-11-14 23:30:31-------------
<?xml version='1.0' encoding='UTF-8' standalone='yes'?>
							<P>
								<business>
									<id_company>ZC6A</id_company>
									<id_branch>0006</id_branch>
									<user>ZC6ASIUS0</user>
									<pwd>APSPVPSRG9</pwd>
								</business>
								<url>
									<reference>Hotel Adhara Cancun1426</reference>
									<amount>1817</amount>
									<moneda>MXN</moneda>
									<canal>W</canal>
									<omitir_notif_default>1</omitir_notif_default>
									<st_correo>1</st_correo>
									<mail_cliente>juan.alucard.02@gmail.com</mail_cliente>
									<datos_adicionales>
										<data id='1' display='true'>
											<label>Nombre</label>
											<value>Juan Pablo Gomez Gomez</value>
										</data>
									</datos_adicionales>
								</url>
							</P>




-------- Fecha: 2019-11-14 23:31:29-------------
<?xml version='1.0' encoding='UTF-8' standalone='yes'?>
							<P>
								<business>
									<id_company>ZC6A</id_company>
									<id_branch>0006</id_branch>
									<user>ZC6ASIUS0</user>
									<pwd>APSPVPSRG9</pwd>
								</business>
								<url>
									<reference>Hotel Adhara Cancun1427</reference>
									<amount>1453</amount>
									<moneda>MXN</moneda>
									<canal>W</canal>
									<omitir_notif_default>1</omitir_notif_default>
									<st_correo>1</st_correo>
									<mail_cliente>juan.alucard.02@gmail.com</mail_cliente>
									<datos_adicionales>
										<data id='1' display='true'>
											<label>Nombre</label>
											<value>Juan Pablo Gomez Gomez</value>
										</data>
									</datos_adicionales>
								</url>
							</P>


